%YAML 1.1
%TAG !u! tag:unity3d.com,2011:
--- !u!1045 &1
EditorBuildSettings:
  m_ObjectHideFlags: 0
  serializedVersion: 2
  m_Scenes:
  - enabled: 1
    path: Assets/Scenes/startScreen.unity
    guid: bf545bf9c587cf24c8975420f83c7a56
  - enabled: 1
    path: Assets/Scenes/Tutorial.unity
    guid: 32002adf8dbb8f94c94aa1ee57095bd6
  - enabled: 1
    path: Assets/Scenes/Level1.unity
    guid: 773b1c6bc97a4e04bbb172e3846e4cb8
  - enabled: 1
    path: Assets/Scenes/Level2.unity
    guid: e208478cc14e03e42abe5f0a24ce7a53
  - enabled: 1
    path: Assets/Scenes/Level3.unity
    guid: d675130838026924babccb1b4dd00ae0
  - enabled: 1
    path: Assets/Scenes/Level4.unity
    guid: d28d4a3569625514f9a035827fb409df
  - enabled: 1
    path: Assets/Scenes/Level5.unity
    guid: 4954611d6dd26124d830efd41e0a7599
  - enabled: 1
    path: Assets/Scenes/endScreen.unity
    guid: 0adf93599fcd33b47876339d519678f8
